EESchema Schematic File Version 4
EELAYER 30 0
EELAYER END
$Descr A4 11693 8268
encoding utf-8
Sheet 1 1
Title "Sensor unit for integration run"
Date ""
Rev "v0"
Comp "Paul Scherrer Institut"
Comment1 "Frank Meier"
Comment2 ""
Comment3 ""
Comment4 ""
$EndDescr
$Comp
L HeSensor:O2-A2 U?
U 1 1 6037C743
P 1450 1800
F 0 "U?" H 1507 2167 50  0000 C CNN
F 1 "O2-A2" H 1507 2076 50  0000 C CNN
F 2 "" H 1900 1800 50  0001 C CNN
F 3 "" H 1900 1800 50  0001 C CNN
	1    1450 1800
	1    0    0    -1  
$EndComp
$Comp
L Amplifier_Instrumentation:INA326 U?
U 1 1 6037CE17
P 3450 1800
F 0 "U?" H 3894 1846 50  0000 L CNN
F 1 "INA326" H 3894 1755 50  0000 L CNN
F 2 "Package_SO:MSOP-8_3x3mm_P0.65mm" H 3450 1800 50  0001 L CNN
F 3 "http://www.ti.com/lit/ds/symlink/ina326.pdf" H 3550 1800 50  0001 C CNN
	1    3450 1800
	1    0    0    -1  
$EndComp
$Comp
L Device:R R?
U 1 1 6037D4C5
P 2750 1800
F 0 "R?" H 2820 1846 50  0000 L CNN
F 1 "2k" H 2820 1755 50  0000 L CNN
F 2 "" V 2680 1800 50  0001 C CNN
F 3 "~" H 2750 1800 50  0001 C CNN
	1    2750 1800
	1    0    0    -1  
$EndComp
Wire Wire Line
	2750 1650 2750 1600
Wire Wire Line
	2750 1600 3000 1600
Wire Wire Line
	3000 1600 3000 1700
Wire Wire Line
	3000 1700 3150 1700
Wire Wire Line
	2750 1950 2750 2000
Wire Wire Line
	2750 2000 3000 2000
Wire Wire Line
	3000 2000 3000 1900
Wire Wire Line
	3000 1900 3150 1900
Wire Wire Line
	3100 1500 3100 1600
Wire Wire Line
	3100 1600 3150 1600
Wire Wire Line
	3100 2100 3100 2000
Wire Wire Line
	3100 2000 3150 2000
$Comp
L Device:R R?
U 1 1 6037F7BE
P 2400 1800
F 0 "R?" H 2470 1846 50  0000 L CNN
F 1 "100" H 2470 1755 50  0000 L CNN
F 2 "" V 2330 1800 50  0001 C CNN
F 3 "~" H 2400 1800 50  0001 C CNN
	1    2400 1800
	1    0    0    -1  
$EndComp
Wire Wire Line
	3100 1500 2400 1500
Wire Wire Line
	2400 1500 2400 1650
Connection ~ 2400 1500
Wire Wire Line
	1950 1500 1950 1700
Wire Wire Line
	1950 1700 1850 1700
Wire Wire Line
	3100 2100 2400 2100
Wire Wire Line
	2400 2100 2400 1950
Connection ~ 2400 2100
Wire Wire Line
	1950 2100 1950 1900
Wire Wire Line
	1950 1900 1850 1900
$Comp
L Device:R R?
U 1 1 60381CA7
P 4400 1800
F 0 "R?" V 4193 1800 50  0000 C CNN
F 1 "R" V 4284 1800 50  0000 C CNN
F 2 "" V 4330 1800 50  0001 C CNN
F 3 "~" H 4400 1800 50  0001 C CNN
	1    4400 1800
	0    1    1    0   
$EndComp
$Comp
L Device:C C?
U 1 1 603825E4
P 4750 2050
F 0 "C?" H 4865 2096 50  0000 L CNN
F 1 "1u" H 4865 2005 50  0000 L CNN
F 2 "" H 4788 1900 50  0001 C CNN
F 3 "~" H 4750 2050 50  0001 C CNN
	1    4750 2050
	1    0    0    -1  
$EndComp
$Comp
L power:GND #PWR?
U 1 1 603829A4
P 4750 2400
F 0 "#PWR?" H 4750 2150 50  0001 C CNN
F 1 "GND" H 4755 2227 50  0000 C CNN
F 2 "" H 4750 2400 50  0001 C CNN
F 3 "" H 4750 2400 50  0001 C CNN
	1    4750 2400
	1    0    0    -1  
$EndComp
Wire Wire Line
	3850 1800 4250 1800
Wire Wire Line
	4550 1800 4750 1800
Wire Wire Line
	4750 1800 4750 1900
Wire Wire Line
	4750 2200 4750 2400
$Comp
L power:+5V #PWR?
U 1 1 60383AE3
P 3450 1150
F 0 "#PWR?" H 3450 1000 50  0001 C CNN
F 1 "+5V" H 3465 1323 50  0000 C CNN
F 2 "" H 3450 1150 50  0001 C CNN
F 3 "" H 3450 1150 50  0001 C CNN
	1    3450 1150
	1    0    0    -1  
$EndComp
Wire Wire Line
	3450 1500 3450 1250
$Comp
L Device:C C?
U 1 1 603848CD
P 3850 1250
F 0 "C?" V 3598 1250 50  0000 C CNN
F 1 "0.1u" V 3689 1250 50  0000 C CNN
F 2 "" H 3888 1100 50  0001 C CNN
F 3 "~" H 3850 1250 50  0001 C CNN
	1    3850 1250
	0    1    1    0   
$EndComp
$Comp
L power:GND #PWR?
U 1 1 60385435
P 4150 1400
F 0 "#PWR?" H 4150 1150 50  0001 C CNN
F 1 "GND" H 4155 1227 50  0000 C CNN
F 2 "" H 4150 1400 50  0001 C CNN
F 3 "" H 4150 1400 50  0001 C CNN
	1    4150 1400
	1    0    0    -1  
$EndComp
Wire Wire Line
	4000 1250 4150 1250
Wire Wire Line
	4150 1250 4150 1400
Wire Wire Line
	3700 1250 3450 1250
Connection ~ 3450 1250
Wire Wire Line
	3450 1250 3450 1150
$Comp
L power:GND #PWR?
U 1 1 60386550
P 3450 2300
F 0 "#PWR?" H 3450 2050 50  0001 C CNN
F 1 "GND" H 3455 2127 50  0000 C CNN
F 2 "" H 3450 2300 50  0001 C CNN
F 3 "" H 3450 2300 50  0001 C CNN
	1    3450 2300
	1    0    0    -1  
$EndComp
$Comp
L Device:R R?
U 1 1 603875DA
P 3350 2750
F 0 "R?" V 3143 2750 50  0000 C CNN
F 1 "400k" V 3234 2750 50  0000 C CNN
F 2 "" V 3280 2750 50  0001 C CNN
F 3 "~" H 3350 2750 50  0001 C CNN
	1    3350 2750
	0    1    1    0   
$EndComp
$Comp
L Device:R R?
U 1 1 60388497
P 3800 2750
F 0 "R?" V 3593 2750 50  0000 C CNN
F 1 "400k" V 3684 2750 50  0000 C CNN
F 2 "" V 3730 2750 50  0001 C CNN
F 3 "~" H 3800 2750 50  0001 C CNN
	1    3800 2750
	0    1    1    0   
$EndComp
Wire Wire Line
	3550 2100 3550 2750
Wire Wire Line
	3500 2750 3550 2750
Connection ~ 3550 2750
Wire Wire Line
	3550 2750 3650 2750
$Comp
L power:GND #PWR?
U 1 1 60389636
P 3100 2900
F 0 "#PWR?" H 3100 2650 50  0001 C CNN
F 1 "GND" H 3105 2727 50  0000 C CNN
F 2 "" H 3100 2900 50  0001 C CNN
F 3 "" H 3100 2900 50  0001 C CNN
	1    3100 2900
	1    0    0    -1  
$EndComp
$Comp
L Device:C C?
U 1 1 60389D4A
P 3550 3050
F 0 "C?" H 3665 3096 50  0000 L CNN
F 1 "0.5n" H 3665 3005 50  0000 L CNN
F 2 "" H 3588 2900 50  0001 C CNN
F 3 "~" H 3550 3050 50  0001 C CNN
	1    3550 3050
	1    0    0    -1  
$EndComp
Wire Wire Line
	3550 2750 3550 2900
Wire Wire Line
	3100 2900 3100 2750
Wire Wire Line
	3100 2750 3200 2750
$Comp
L power:GND #PWR?
U 1 1 6038B2BC
P 3550 3300
F 0 "#PWR?" H 3550 3050 50  0001 C CNN
F 1 "GND" H 3555 3127 50  0000 C CNN
F 2 "" H 3550 3300 50  0001 C CNN
F 3 "" H 3550 3300 50  0001 C CNN
	1    3550 3300
	1    0    0    -1  
$EndComp
Wire Wire Line
	3550 3300 3550 3200
$Comp
L power:+5V #PWR?
U 1 1 6038C070
P 4050 2650
F 0 "#PWR?" H 4050 2500 50  0001 C CNN
F 1 "+5V" H 4065 2823 50  0000 C CNN
F 2 "" H 4050 2650 50  0001 C CNN
F 3 "" H 4050 2650 50  0001 C CNN
	1    4050 2650
	1    0    0    -1  
$EndComp
Wire Wire Line
	4050 2750 3950 2750
Wire Wire Line
	4050 2650 4050 2750
$Comp
L power:GND #PWR?
U 1 1 6038F92D
P 6800 1450
F 0 "#PWR?" H 6800 1200 50  0001 C CNN
F 1 "GND" H 6805 1277 50  0000 C CNN
F 2 "" H 6800 1450 50  0001 C CNN
F 3 "" H 6800 1450 50  0001 C CNN
	1    6800 1450
	-1   0    0    1   
$EndComp
$Comp
L power:+5V #PWR?
U 1 1 60390275
P 7800 1450
F 0 "#PWR?" H 7800 1300 50  0001 C CNN
F 1 "+5V" H 7815 1623 50  0000 C CNN
F 2 "" H 7800 1450 50  0001 C CNN
F 3 "" H 7800 1450 50  0001 C CNN
	1    7800 1450
	1    0    0    -1  
$EndComp
Wire Wire Line
	7800 1450 7800 1700
Wire Wire Line
	7800 1700 7600 1700
Wire Wire Line
	7100 1700 6800 1700
Wire Wire Line
	6800 1700 6800 1450
$Comp
L Sensor_Temperature:LM35-LP U?
U 1 1 603967D0
P 9900 1800
F 0 "U?" H 9570 1846 50  0000 R CNN
F 1 "LM35-LP" H 9570 1755 50  0000 R CNN
F 2 "" H 9950 1550 50  0001 L CNN
F 3 "http://www.ti.com/lit/ds/symlink/lm35.pdf" H 9900 1800 50  0001 C CNN
	1    9900 1800
	-1   0    0    -1  
$EndComp
Wire Wire Line
	3450 2100 3450 2300
$Comp
L power:GND #PWR?
U 1 1 6039A3B2
P 9900 2700
F 0 "#PWR?" H 9900 2450 50  0001 C CNN
F 1 "GND" H 9905 2527 50  0000 C CNN
F 2 "" H 9900 2700 50  0001 C CNN
F 3 "" H 9900 2700 50  0001 C CNN
	1    9900 2700
	1    0    0    -1  
$EndComp
$Comp
L power:+5V #PWR?
U 1 1 6039AC60
P 9900 1400
F 0 "#PWR?" H 9900 1250 50  0001 C CNN
F 1 "+5V" H 9915 1573 50  0000 C CNN
F 2 "" H 9900 1400 50  0001 C CNN
F 3 "" H 9900 1400 50  0001 C CNN
	1    9900 1400
	1    0    0    -1  
$EndComp
Wire Wire Line
	9900 2700 9900 2600
Wire Wire Line
	9900 1400 9900 1500
Connection ~ 4750 1800
$Comp
L Device:C C?
U 1 1 603BD520
P 9300 2450
F 0 "C?" H 9415 2496 50  0000 L CNN
F 1 "1u" H 9415 2405 50  0000 L CNN
F 2 "" H 9338 2300 50  0001 C CNN
F 3 "~" H 9300 2450 50  0001 C CNN
	1    9300 2450
	1    0    0    -1  
$EndComp
$Comp
L Connector_Generic:Conn_02x04_Odd_Even J?
U 1 1 603DD590
P 7300 1800
F 0 "J?" H 7350 2117 50  0000 C CNN
F 1 "Conn_02x04_Odd_Even" H 7350 2026 50  0000 C CNN
F 2 "" H 7300 1800 50  0001 C CNN
F 3 "~" H 7300 1800 50  0001 C CNN
	1    7300 1800
	1    0    0    -1  
$EndComp
Wire Wire Line
	4750 1800 7100 1800
Connection ~ 4400 4800
Wire Wire Line
	4750 4800 4750 4750
Wire Wire Line
	4400 4800 4750 4800
Wire Wire Line
	4750 4400 4750 4450
Wire Wire Line
	4400 4400 4750 4400
$Comp
L Device:C C?
U 1 1 603BDE99
P 4750 4600
F 0 "C?" H 4865 4646 50  0000 L CNN
F 1 "C" H 4865 4555 50  0000 L CNN
F 2 "" H 4788 4450 50  0001 C CNN
F 3 "~" H 4750 4600 50  0001 C CNN
	1    4750 4600
	1    0    0    -1  
$EndComp
Connection ~ 4400 4400
Wire Wire Line
	4400 3800 4400 4400
Connection ~ 3850 4800
Wire Wire Line
	4400 4800 3850 4800
Wire Wire Line
	4400 4750 4400 4800
Wire Wire Line
	4400 4400 4400 4450
Wire Wire Line
	4250 4400 4400 4400
$Comp
L Device:R R?
U 1 1 603A1360
P 4400 4600
F 0 "R?" H 4470 4646 50  0000 L CNN
F 1 "80k" H 4470 4555 50  0000 L CNN
F 2 "" V 4330 4600 50  0001 C CNN
F 3 "~" H 4400 4600 50  0001 C CNN
	1    4400 4600
	1    0    0    -1  
$EndComp
Wire Wire Line
	3850 4700 3850 4800
Wire Wire Line
	3850 4100 3850 4000
$Comp
L power:+5V #PWR?
U 1 1 6039B5A3
P 3850 4000
F 0 "#PWR?" H 3850 3850 50  0001 C CNN
F 1 "+5V" H 3865 4173 50  0000 C CNN
F 2 "" H 3850 4000 50  0001 C CNN
F 3 "" H 3850 4000 50  0001 C CNN
	1    3850 4000
	1    0    0    -1  
$EndComp
$Comp
L power:GND #PWR?
U 1 1 6039A89C
P 3850 4800
F 0 "#PWR?" H 3850 4550 50  0001 C CNN
F 1 "GND" H 3855 4627 50  0000 C CNN
F 2 "" H 3850 4800 50  0001 C CNN
F 3 "" H 3850 4800 50  0001 C CNN
	1    3850 4800
	1    0    0    -1  
$EndComp
$Comp
L HeSensor:HIH-4010 U?
U 1 1 60397213
P 3850 4400
F 0 "U?" H 3521 4446 50  0000 R CNN
F 1 "HIH-4010" H 3521 4355 50  0000 R CNN
F 2 "" H 3850 4400 50  0001 C CNN
F 3 "" H 3850 4400 50  0001 C CNN
	1    3850 4400
	1    0    0    -1  
$EndComp
Wire Wire Line
	5400 3800 5400 1900
Wire Wire Line
	5400 1900 7100 1900
Wire Wire Line
	4400 3800 5400 3800
$Comp
L Device:R R?
U 1 1 60400FC0
P 9000 1800
F 0 "R?" V 8793 1800 50  0000 C CNN
F 1 "0" V 8884 1800 50  0000 C CNN
F 2 "" V 8930 1800 50  0001 C CNN
F 3 "~" H 9000 1800 50  0001 C CNN
	1    9000 1800
	0    1    1    0   
$EndComp
Wire Wire Line
	7600 1800 8850 1800
Wire Wire Line
	9150 1800 9300 1800
Wire Wire Line
	9300 1900 9300 1800
Connection ~ 9300 1800
Wire Wire Line
	9300 1800 9500 1800
Wire Wire Line
	9300 2200 9300 2300
Wire Wire Line
	9300 2600 9900 2600
Connection ~ 9900 2600
Wire Wire Line
	9900 2600 9900 2100
$Comp
L Device:R R?
U 1 1 603FFF23
P 9300 2050
F 0 "R?" H 9370 2096 50  0000 L CNN
F 1 "75" H 9370 2005 50  0000 L CNN
F 2 "" V 9230 2050 50  0001 C CNN
F 3 "~" H 9300 2050 50  0001 C CNN
	1    9300 2050
	1    0    0    -1  
$EndComp
$Comp
L Connector:Conn_01x03_Female J?
U 1 1 603B4A6D
P 9450 3750
F 0 "J?" H 9478 3776 50  0000 L CNN
F 1 "Conn_01x03_Female" H 9478 3685 50  0000 L CNN
F 2 "" H 9450 3750 50  0001 C CNN
F 3 "~" H 9450 3750 50  0001 C CNN
	1    9450 3750
	1    0    0    -1  
$EndComp
$Comp
L power:+5V #PWR?
U 1 1 60416615
P 9150 3500
F 0 "#PWR?" H 9150 3350 50  0001 C CNN
F 1 "+5V" H 9165 3673 50  0000 C CNN
F 2 "" H 9150 3500 50  0001 C CNN
F 3 "" H 9150 3500 50  0001 C CNN
	1    9150 3500
	1    0    0    -1  
$EndComp
Wire Wire Line
	9250 3650 9150 3650
Wire Wire Line
	9150 3650 9150 3500
$Comp
L Device:C C?
U 1 1 6041A66A
P 8800 4400
F 0 "C?" H 8915 4446 50  0000 L CNN
F 1 "1u" H 8915 4355 50  0000 L CNN
F 2 "" H 8838 4250 50  0001 C CNN
F 3 "~" H 8800 4400 50  0001 C CNN
	1    8800 4400
	1    0    0    -1  
$EndComp
$Comp
L Device:R R?
U 1 1 6041A670
P 8500 3750
F 0 "R?" V 8293 3750 50  0000 C CNN
F 1 "0" V 8384 3750 50  0000 C CNN
F 2 "" V 8430 3750 50  0001 C CNN
F 3 "~" H 8500 3750 50  0001 C CNN
	1    8500 3750
	0    1    1    0   
$EndComp
Wire Wire Line
	8650 3750 8800 3750
Wire Wire Line
	8800 3850 8800 3750
Connection ~ 8800 3750
Wire Wire Line
	8800 4150 8800 4250
$Comp
L Device:R R?
U 1 1 6041A67D
P 8800 4000
F 0 "R?" H 8870 4046 50  0000 L CNN
F 1 "75" H 8870 3955 50  0000 L CNN
F 2 "" V 8730 4000 50  0001 C CNN
F 3 "~" H 8800 4000 50  0001 C CNN
	1    8800 4000
	1    0    0    -1  
$EndComp
Wire Wire Line
	8800 3750 9250 3750
$Comp
L power:GND #PWR?
U 1 1 6042070C
P 9150 4600
F 0 "#PWR?" H 9150 4350 50  0001 C CNN
F 1 "GND" H 9155 4427 50  0000 C CNN
F 2 "" H 9150 4600 50  0001 C CNN
F 3 "" H 9150 4600 50  0001 C CNN
	1    9150 4600
	1    0    0    -1  
$EndComp
Wire Wire Line
	9150 4600 9150 4550
Wire Wire Line
	9150 3850 9250 3850
Wire Wire Line
	8800 4550 9150 4550
Connection ~ 9150 4550
Wire Wire Line
	9150 4550 9150 3850
Wire Wire Line
	8350 3750 8100 3750
Wire Wire Line
	8100 3750 8100 1900
Wire Wire Line
	8100 1900 7600 1900
$Comp
L Connector:Conn_01x03_Female J?
U 1 1 6042BB82
P 9450 5350
F 0 "J?" H 9478 5376 50  0000 L CNN
F 1 "Conn_01x03_Female" H 9478 5285 50  0000 L CNN
F 2 "" H 9450 5350 50  0001 C CNN
F 3 "~" H 9450 5350 50  0001 C CNN
	1    9450 5350
	1    0    0    -1  
$EndComp
$Comp
L power:+5V #PWR?
U 1 1 6042BB88
P 9150 5100
F 0 "#PWR?" H 9150 4950 50  0001 C CNN
F 1 "+5V" H 9165 5273 50  0000 C CNN
F 2 "" H 9150 5100 50  0001 C CNN
F 3 "" H 9150 5100 50  0001 C CNN
	1    9150 5100
	1    0    0    -1  
$EndComp
Wire Wire Line
	9250 5250 9150 5250
Wire Wire Line
	9150 5250 9150 5100
$Comp
L Device:C C?
U 1 1 6042BB90
P 8800 6000
F 0 "C?" H 8915 6046 50  0000 L CNN
F 1 "1u" H 8915 5955 50  0000 L CNN
F 2 "" H 8838 5850 50  0001 C CNN
F 3 "~" H 8800 6000 50  0001 C CNN
	1    8800 6000
	1    0    0    -1  
$EndComp
$Comp
L Device:R R?
U 1 1 6042BB96
P 8500 5350
F 0 "R?" V 8293 5350 50  0000 C CNN
F 1 "0" V 8384 5350 50  0000 C CNN
F 2 "" V 8430 5350 50  0001 C CNN
F 3 "~" H 8500 5350 50  0001 C CNN
	1    8500 5350
	0    1    1    0   
$EndComp
Wire Wire Line
	8650 5350 8800 5350
Wire Wire Line
	8800 5450 8800 5350
Connection ~ 8800 5350
Wire Wire Line
	8800 5750 8800 5850
$Comp
L Device:R R?
U 1 1 6042BBA0
P 8800 5600
F 0 "R?" H 8870 5646 50  0000 L CNN
F 1 "75" H 8870 5555 50  0000 L CNN
F 2 "" V 8730 5600 50  0001 C CNN
F 3 "~" H 8800 5600 50  0001 C CNN
	1    8800 5600
	1    0    0    -1  
$EndComp
Wire Wire Line
	8800 5350 9250 5350
$Comp
L power:GND #PWR?
U 1 1 6042BBA7
P 9150 6200
F 0 "#PWR?" H 9150 5950 50  0001 C CNN
F 1 "GND" H 9155 6027 50  0000 C CNN
F 2 "" H 9150 6200 50  0001 C CNN
F 3 "" H 9150 6200 50  0001 C CNN
	1    9150 6200
	1    0    0    -1  
$EndComp
Wire Wire Line
	9150 6200 9150 6150
Wire Wire Line
	9150 5450 9250 5450
Wire Wire Line
	8800 6150 9150 6150
Connection ~ 9150 6150
Wire Wire Line
	9150 6150 9150 5450
$Comp
L Connector:Conn_01x03_Female J?
U 1 1 604311F3
P 7350 5400
F 0 "J?" H 7378 5426 50  0000 L CNN
F 1 "Conn_01x03_Female" H 7378 5335 50  0000 L CNN
F 2 "" H 7350 5400 50  0001 C CNN
F 3 "~" H 7350 5400 50  0001 C CNN
	1    7350 5400
	1    0    0    -1  
$EndComp
$Comp
L power:+5V #PWR?
U 1 1 604311F9
P 7050 5150
F 0 "#PWR?" H 7050 5000 50  0001 C CNN
F 1 "+5V" H 7065 5323 50  0000 C CNN
F 2 "" H 7050 5150 50  0001 C CNN
F 3 "" H 7050 5150 50  0001 C CNN
	1    7050 5150
	1    0    0    -1  
$EndComp
Wire Wire Line
	7150 5300 7050 5300
Wire Wire Line
	7050 5300 7050 5150
$Comp
L Device:C C?
U 1 1 60431201
P 6700 6050
F 0 "C?" H 6815 6096 50  0000 L CNN
F 1 "1u" H 6815 6005 50  0000 L CNN
F 2 "" H 6738 5900 50  0001 C CNN
F 3 "~" H 6700 6050 50  0001 C CNN
	1    6700 6050
	1    0    0    -1  
$EndComp
$Comp
L Device:R R?
U 1 1 60431207
P 6400 5400
F 0 "R?" V 6193 5400 50  0000 C CNN
F 1 "0" V 6284 5400 50  0000 C CNN
F 2 "" V 6330 5400 50  0001 C CNN
F 3 "~" H 6400 5400 50  0001 C CNN
	1    6400 5400
	0    1    1    0   
$EndComp
Wire Wire Line
	6550 5400 6700 5400
Wire Wire Line
	6700 5500 6700 5400
Connection ~ 6700 5400
Wire Wire Line
	6700 5800 6700 5900
$Comp
L Device:R R?
U 1 1 60431211
P 6700 5650
F 0 "R?" H 6770 5696 50  0000 L CNN
F 1 "75" H 6770 5605 50  0000 L CNN
F 2 "" V 6630 5650 50  0001 C CNN
F 3 "~" H 6700 5650 50  0001 C CNN
	1    6700 5650
	1    0    0    -1  
$EndComp
Wire Wire Line
	6700 5400 7150 5400
$Comp
L power:GND #PWR?
U 1 1 60431218
P 7050 6250
F 0 "#PWR?" H 7050 6000 50  0001 C CNN
F 1 "GND" H 7055 6077 50  0000 C CNN
F 2 "" H 7050 6250 50  0001 C CNN
F 3 "" H 7050 6250 50  0001 C CNN
	1    7050 6250
	1    0    0    -1  
$EndComp
Wire Wire Line
	7050 6250 7050 6200
Wire Wire Line
	7050 5500 7150 5500
Wire Wire Line
	6700 6200 7050 6200
Connection ~ 7050 6200
Wire Wire Line
	7050 6200 7050 5500
Wire Wire Line
	6250 5400 6000 5400
Wire Wire Line
	7100 2000 6000 2000
Wire Wire Line
	6000 2000 6000 5400
Wire Wire Line
	7600 2000 7600 5350
Wire Wire Line
	7600 5350 8350 5350
Wire Wire Line
	1950 1500 2150 1500
Wire Wire Line
	1950 2100 2150 2100
$Comp
L Device:C C?
U 1 1 6043A3EA
P 2150 2350
F 0 "C?" H 2265 2396 50  0000 L CNN
F 1 "C" H 2265 2305 50  0000 L CNN
F 2 "" H 2188 2200 50  0001 C CNN
F 3 "~" H 2150 2350 50  0001 C CNN
	1    2150 2350
	1    0    0    -1  
$EndComp
$Comp
L Device:C C?
U 1 1 6043A8B7
P 2150 1250
F 0 "C?" H 2265 1296 50  0000 L CNN
F 1 "C" H 2265 1205 50  0000 L CNN
F 2 "" H 2188 1100 50  0001 C CNN
F 3 "~" H 2150 1250 50  0001 C CNN
	1    2150 1250
	1    0    0    -1  
$EndComp
Wire Wire Line
	2150 1400 2150 1500
Connection ~ 2150 1500
Wire Wire Line
	2150 1500 2400 1500
Wire Wire Line
	2150 2100 2150 2200
Connection ~ 2150 2100
Wire Wire Line
	2150 2100 2400 2100
$Comp
L power:GND #PWR?
U 1 1 604417CA
P 2150 950
F 0 "#PWR?" H 2150 700 50  0001 C CNN
F 1 "GND" H 2155 777 50  0000 C CNN
F 2 "" H 2150 950 50  0001 C CNN
F 3 "" H 2150 950 50  0001 C CNN
	1    2150 950 
	-1   0    0    1   
$EndComp
$Comp
L power:GND #PWR?
U 1 1 604421D6
P 2150 2650
F 0 "#PWR?" H 2150 2400 50  0001 C CNN
F 1 "GND" H 2155 2477 50  0000 C CNN
F 2 "" H 2150 2650 50  0001 C CNN
F 3 "" H 2150 2650 50  0001 C CNN
	1    2150 2650
	1    0    0    -1  
$EndComp
Wire Wire Line
	2150 2500 2150 2650
Wire Wire Line
	2150 950  2150 1100
$EndSCHEMATC
