EESchema Schematic File Version 4
EELAYER 30 0
EELAYER END
$Descr A4 11693 8268
encoding utf-8
Sheet 1 1
Title "Sensor unit for integration run"
Date ""
Rev "v0"
Comp "Paul Scherrer Institut"
Comment1 "Frank Meier"
Comment2 ""
Comment3 ""
Comment4 ""
$EndDescr
$Comp
L HeSensorAmp-rescue:O2-A2-HeSensor U1
U 1 1 6037C743
P 1450 1800
F 0 "U1" H 1507 2167 50  0000 C CNN
F 1 "O2-A2" H 1507 2076 50  0000 C CNN
F 2 "HeSensorAmp:Alphasense_O2-A2" H 1900 1800 50  0001 C CNN
F 3 "https://www.alphasense.com/WEB1213/wp-content/uploads/2017/01/O2A2.pdf" H 1900 1800 50  0001 C CNN
F 4 "A26260-ND" H 1450 1800 50  0001 C CNN "Digi-Key Part"
F 5 "Auf Print 2x TE connector pin 1-50871-9 (A26260-ND) einlöten" H 1450 1800 50  0001 C CNN "Comment"
	1    1450 1800
	1    0    0    -1  
$EndComp
$Comp
L Amplifier_Instrumentation:INA326 U2
U 1 1 6037CE17
P 3450 1800
F 0 "U2" H 3894 1846 50  0000 L CNN
F 1 "INA326" H 3894 1755 50  0000 L CNN
F 2 "Package_SO:MSOP-8_3x3mm_P0.65mm" H 3450 1800 50  0001 L CNN
F 3 "http://www.ti.com/lit/ds/symlink/ina326.pdf" H 3550 1800 50  0001 C CNN
F 4 "INA326EA/2K5 " H 3450 1800 50  0001 C CNN "Digi-Key Part"
	1    3450 1800
	1    0    0    -1  
$EndComp
$Comp
L Device:R R2
U 1 1 6037D4C5
P 2750 1800
F 0 "R2" H 2820 1846 50  0000 L CNN
F 1 "2k" H 2820 1755 50  0000 L CNN
F 2 "Resistor_SMD:R_0402_1005Metric" V 2680 1800 50  0001 C CNN
F 3 "~" H 2750 1800 50  0001 C CNN
	1    2750 1800
	1    0    0    -1  
$EndComp
Wire Wire Line
	2750 1650 2750 1600
Wire Wire Line
	2750 1600 3000 1600
Wire Wire Line
	3000 1600 3000 1700
Wire Wire Line
	3000 1700 3150 1700
Wire Wire Line
	2750 1950 2750 2000
Wire Wire Line
	2750 2000 3000 2000
Wire Wire Line
	3000 2000 3000 1900
Wire Wire Line
	3000 1900 3150 1900
Wire Wire Line
	3100 1500 3100 1600
Wire Wire Line
	3100 1600 3150 1600
Wire Wire Line
	3100 2100 3100 2000
Wire Wire Line
	3100 2000 3150 2000
$Comp
L Device:R R1
U 1 1 6037F7BE
P 2400 1800
F 0 "R1" H 2470 1846 50  0000 L CNN
F 1 "100" H 2470 1755 50  0000 L CNN
F 2 "Resistor_SMD:R_0402_1005Metric" V 2330 1800 50  0001 C CNN
F 3 "~" H 2400 1800 50  0001 C CNN
	1    2400 1800
	1    0    0    -1  
$EndComp
Wire Wire Line
	3100 1500 2400 1500
Wire Wire Line
	2400 1500 2400 1650
Connection ~ 2400 1500
Wire Wire Line
	1950 1500 1950 1700
Wire Wire Line
	1950 1700 1850 1700
Wire Wire Line
	3100 2100 2650 2100
Wire Wire Line
	2400 2100 2400 1950
Connection ~ 2400 2100
Wire Wire Line
	1950 2100 1950 1900
Wire Wire Line
	1950 1900 1850 1900
$Comp
L Device:R R5
U 1 1 60381CA7
P 4400 1800
F 0 "R5" V 4193 1800 50  0000 C CNN
F 1 "100" V 4284 1800 50  0000 C CNN
F 2 "Resistor_SMD:R_0402_1005Metric" V 4330 1800 50  0001 C CNN
F 3 "~" H 4400 1800 50  0001 C CNN
	1    4400 1800
	0    1    1    0   
$EndComp
$Comp
L Device:C C5
U 1 1 603825E4
P 4750 2050
F 0 "C5" H 4865 2096 50  0000 L CNN
F 1 "1u" H 4865 2005 50  0000 L CNN
F 2 "Capacitor_SMD:C_0402_1005Metric" H 4788 1900 50  0001 C CNN
F 3 "~" H 4750 2050 50  0001 C CNN
	1    4750 2050
	1    0    0    -1  
$EndComp
$Comp
L power:GND #PWR09
U 1 1 603829A4
P 4750 2400
F 0 "#PWR09" H 4750 2150 50  0001 C CNN
F 1 "GND" H 4755 2227 50  0000 C CNN
F 2 "" H 4750 2400 50  0001 C CNN
F 3 "" H 4750 2400 50  0001 C CNN
	1    4750 2400
	1    0    0    -1  
$EndComp
Wire Wire Line
	3850 1800 4250 1800
Wire Wire Line
	4550 1800 4750 1800
Wire Wire Line
	4750 1800 4750 1900
Wire Wire Line
	4750 2200 4750 2400
$Comp
L power:+5V #PWR04
U 1 1 60383AE3
P 3450 1150
F 0 "#PWR04" H 3450 1000 50  0001 C CNN
F 1 "+5V" H 3465 1323 50  0000 C CNN
F 2 "" H 3450 1150 50  0001 C CNN
F 3 "" H 3450 1150 50  0001 C CNN
	1    3450 1150
	1    0    0    -1  
$EndComp
Wire Wire Line
	3450 1500 3450 1250
$Comp
L Device:C C4
U 1 1 603848CD
P 3850 1250
F 0 "C4" V 3598 1250 50  0000 C CNN
F 1 "0.1u" V 3689 1250 50  0000 C CNN
F 2 "Capacitor_SMD:C_0402_1005Metric" H 3888 1100 50  0001 C CNN
F 3 "~" H 3850 1250 50  0001 C CNN
	1    3850 1250
	0    1    1    0   
$EndComp
$Comp
L power:GND #PWR08
U 1 1 60385435
P 4150 1400
F 0 "#PWR08" H 4150 1150 50  0001 C CNN
F 1 "GND" H 4155 1227 50  0000 C CNN
F 2 "" H 4150 1400 50  0001 C CNN
F 3 "" H 4150 1400 50  0001 C CNN
	1    4150 1400
	1    0    0    -1  
$EndComp
Wire Wire Line
	4000 1250 4150 1250
Wire Wire Line
	4150 1250 4150 1400
Wire Wire Line
	3700 1250 3450 1250
Connection ~ 3450 1250
Wire Wire Line
	3450 1250 3450 1150
$Comp
L power:GND #PWR05
U 1 1 60386550
P 3450 2300
F 0 "#PWR05" H 3450 2050 50  0001 C CNN
F 1 "GND" H 3455 2127 50  0000 C CNN
F 2 "" H 3450 2300 50  0001 C CNN
F 3 "" H 3450 2300 50  0001 C CNN
	1    3450 2300
	1    0    0    -1  
$EndComp
$Comp
L Device:R R3
U 1 1 603875DA
P 3350 2750
F 0 "R3" V 3143 2750 50  0000 C CNN
F 1 "200k" V 3234 2750 50  0000 C CNN
F 2 "Resistor_SMD:R_0402_1005Metric" V 3280 2750 50  0001 C CNN
F 3 "~" H 3350 2750 50  0001 C CNN
	1    3350 2750
	0    1    1    0   
$EndComp
$Comp
L Device:R R4
U 1 1 60388497
P 3800 2750
F 0 "R4" V 3593 2750 50  0000 C CNN
F 1 "infty" V 3684 2750 50  0000 C CNN
F 2 "Resistor_SMD:R_0402_1005Metric" V 3730 2750 50  0001 C CNN
F 3 "~" H 3800 2750 50  0001 C CNN
	1    3800 2750
	0    1    1    0   
$EndComp
Wire Wire Line
	3550 2100 3550 2750
Wire Wire Line
	3500 2750 3550 2750
Connection ~ 3550 2750
Wire Wire Line
	3550 2750 3650 2750
$Comp
L power:GND #PWR03
U 1 1 60389636
P 3100 2900
F 0 "#PWR03" H 3100 2650 50  0001 C CNN
F 1 "GND" H 3105 2727 50  0000 C CNN
F 2 "" H 3100 2900 50  0001 C CNN
F 3 "" H 3100 2900 50  0001 C CNN
	1    3100 2900
	1    0    0    -1  
$EndComp
$Comp
L Device:C C3
U 1 1 60389D4A
P 3550 3050
F 0 "C3" H 3665 3096 50  0000 L CNN
F 1 "0.51n" H 3665 3005 50  0000 L CNN
F 2 "Capacitor_SMD:C_0402_1005Metric" H 3588 2900 50  0001 C CNN
F 3 "~" H 3550 3050 50  0001 C CNN
	1    3550 3050
	1    0    0    -1  
$EndComp
Wire Wire Line
	3550 2750 3550 2900
Wire Wire Line
	3100 2900 3100 2750
Wire Wire Line
	3100 2750 3200 2750
$Comp
L power:GND #PWR06
U 1 1 6038B2BC
P 3550 3300
F 0 "#PWR06" H 3550 3050 50  0001 C CNN
F 1 "GND" H 3555 3127 50  0000 C CNN
F 2 "" H 3550 3300 50  0001 C CNN
F 3 "" H 3550 3300 50  0001 C CNN
	1    3550 3300
	1    0    0    -1  
$EndComp
Wire Wire Line
	3550 3300 3550 3200
$Comp
L power:+5V #PWR07
U 1 1 6038C070
P 4050 2650
F 0 "#PWR07" H 4050 2500 50  0001 C CNN
F 1 "+5V" H 4065 2823 50  0000 C CNN
F 2 "" H 4050 2650 50  0001 C CNN
F 3 "" H 4050 2650 50  0001 C CNN
	1    4050 2650
	1    0    0    -1  
$EndComp
Wire Wire Line
	4050 2750 3950 2750
Wire Wire Line
	4050 2650 4050 2750
Wire Wire Line
	3450 2100 3450 2300
Wire Wire Line
	1950 1500 2150 1500
Wire Wire Line
	1950 2100 2150 2100
$Comp
L Device:C C2
U 1 1 6043A3EA
P 2150 2350
F 0 "C2" H 2265 2396 50  0000 L CNN
F 1 "C" H 2265 2305 50  0000 L CNN
F 2 "Capacitor_SMD:C_0402_1005Metric" H 2188 2200 50  0001 C CNN
F 3 "~" H 2150 2350 50  0001 C CNN
	1    2150 2350
	1    0    0    -1  
$EndComp
$Comp
L Device:C C1
U 1 1 6043A8B7
P 2150 1250
F 0 "C1" H 2265 1296 50  0000 L CNN
F 1 "C" H 2265 1205 50  0000 L CNN
F 2 "Capacitor_SMD:C_0402_1005Metric" H 2188 1100 50  0001 C CNN
F 3 "~" H 2150 1250 50  0001 C CNN
	1    2150 1250
	1    0    0    -1  
$EndComp
Wire Wire Line
	2150 1400 2150 1500
Connection ~ 2150 1500
Wire Wire Line
	2150 1500 2400 1500
Wire Wire Line
	2150 2100 2150 2200
Connection ~ 2150 2100
Wire Wire Line
	2150 2100 2400 2100
$Comp
L power:GND #PWR01
U 1 1 604417CA
P 2150 950
F 0 "#PWR01" H 2150 700 50  0001 C CNN
F 1 "GND" H 2155 777 50  0000 C CNN
F 2 "" H 2150 950 50  0001 C CNN
F 3 "" H 2150 950 50  0001 C CNN
	1    2150 950 
	-1   0    0    1   
$EndComp
$Comp
L power:GND #PWR02
U 1 1 604421D6
P 2150 2650
F 0 "#PWR02" H 2150 2400 50  0001 C CNN
F 1 "GND" H 2155 2477 50  0000 C CNN
F 2 "" H 2150 2650 50  0001 C CNN
F 3 "" H 2150 2650 50  0001 C CNN
	1    2150 2650
	1    0    0    -1  
$EndComp
Wire Wire Line
	2150 2500 2150 2650
Wire Wire Line
	2150 950  2150 1100
$Comp
L Connector:Conn_01x03_Male J1
U 1 1 604D35D4
P 5750 1800
F 0 "J1" H 5812 1944 50  0000 L CNN
F 1 "Conn_01x03_Male" V 5903 1944 50  0000 L CNN
F 2 "Connector_PinHeader_2.54mm:PinHeader_1x03_P2.54mm_Vertical" H 5750 1800 50  0001 C CNN
F 3 "~" H 5750 1800 50  0001 C CNN
	1    5750 1800
	-1   0    0    1   
$EndComp
Wire Wire Line
	4750 1800 4950 1800
Connection ~ 4750 1800
$Comp
L power:+5V #PWR010
U 1 1 604D7315
P 5350 1550
F 0 "#PWR010" H 5350 1400 50  0001 C CNN
F 1 "+5V" H 5365 1723 50  0000 C CNN
F 2 "" H 5350 1550 50  0001 C CNN
F 3 "" H 5350 1550 50  0001 C CNN
	1    5350 1550
	1    0    0    -1  
$EndComp
$Comp
L power:GND #PWR011
U 1 1 604D79EC
P 5350 2050
F 0 "#PWR011" H 5350 1800 50  0001 C CNN
F 1 "GND" H 5355 1877 50  0000 C CNN
F 2 "" H 5350 2050 50  0001 C CNN
F 3 "" H 5350 2050 50  0001 C CNN
	1    5350 2050
	1    0    0    -1  
$EndComp
Wire Wire Line
	5550 1900 5350 1900
Wire Wire Line
	5350 1900 5350 2050
Wire Wire Line
	5550 1700 5350 1700
Wire Wire Line
	5350 1700 5350 1550
$Comp
L Device:R R6
U 1 1 604EAD52
P 2650 2400
F 0 "R6" H 2720 2446 50  0000 L CNN
F 1 "1M" H 2720 2355 50  0000 L CNN
F 2 "Resistor_SMD:R_0402_1005Metric" V 2580 2400 50  0001 C CNN
F 3 "~" H 2650 2400 50  0001 C CNN
	1    2650 2400
	1    0    0    -1  
$EndComp
$Comp
L power:GND #PWR012
U 1 1 604EC591
P 2650 2650
F 0 "#PWR012" H 2650 2400 50  0001 C CNN
F 1 "GND" H 2655 2477 50  0000 C CNN
F 2 "" H 2650 2650 50  0001 C CNN
F 3 "" H 2650 2650 50  0001 C CNN
	1    2650 2650
	1    0    0    -1  
$EndComp
Wire Wire Line
	2650 2250 2650 2100
Connection ~ 2650 2100
Wire Wire Line
	2650 2100 2400 2100
Wire Wire Line
	2650 2550 2650 2650
Text Notes 2200 3150 0    50   ~ 0
Bias return path\n(Fig 4 in Datenblatt)\nFalls notwendig
Text Notes 3900 3000 0    50   ~ 0
Falls nötig kann hier ein Bias gewählt werden.\nR3 || R4 = 200 k für G = 100
$Comp
L Connector:Conn_Coaxial J2
U 1 1 60513303
P 5650 1000
F 0 "J2" H 5750 975 50  0000 L CNN
F 1 "Conn_Coaxial" H 5750 884 50  0000 L CNN
F 2 "Connector_Coaxial:SMB_Jack_Vertical" H 5650 1000 50  0001 C CNN
F 3 "https://www.we-online.de/katalog/datasheet/60612002111505.pdf" H 5650 1000 50  0001 C CNN
F 4 "732-14174-ND" H 5650 1000 50  0001 C CNN "Digi-Key Part"
	1    5650 1000
	1    0    0    -1  
$EndComp
Wire Wire Line
	5450 1000 4950 1000
Wire Wire Line
	4950 1000 4950 1800
$Comp
L power:GND #PWR013
U 1 1 60515177
P 5650 1300
F 0 "#PWR013" H 5650 1050 50  0001 C CNN
F 1 "GND" H 5655 1127 50  0000 C CNN
F 2 "" H 5650 1300 50  0001 C CNN
F 3 "" H 5650 1300 50  0001 C CNN
	1    5650 1300
	1    0    0    -1  
$EndComp
Wire Wire Line
	5650 1200 5650 1300
$Comp
L Device:R R7
U 1 1 6054C32E
P 5150 1800
F 0 "R7" V 4943 1800 50  0000 C CNN
F 1 "0" V 5034 1800 50  0000 C CNN
F 2 "Resistor_SMD:R_0402_1005Metric" V 5080 1800 50  0001 C CNN
F 3 "~" H 5150 1800 50  0001 C CNN
	1    5150 1800
	0    1    1    0   
$EndComp
Wire Wire Line
	5000 1800 4950 1800
Connection ~ 4950 1800
Wire Wire Line
	5300 1800 5550 1800
Text Notes 2300 1100 0    50   ~ 0
C1 & C2 nur bestücken\nwenn notwendig
$EndSCHEMATC
